{
  "chat_room_id": 1,
  "chat_room_title": "It`s first chat",
  "chat_room_dialogs": [
    {
      "message_id": 1,
      "message_type": 1,
      "bot_message": "What is your name?",
      "user_message": ""
    },
    {
      "message_id": 2,
      "message_type": 1,
      "bot_message": "Glad to meat you. How old are you?",
      "user_message": ""
    },
    {
      "message_id": 3,
      "message_type": 1,
      "bot_message": "Have a good day :)",
      "user_message": ""
    }
  ]
}